digraph "ObiektSceny.hh"
{
  edge [fontname="Helvetica",fontsize="10",labelfontname="Helvetica",labelfontsize="10"];
  node [fontname="Helvetica",fontsize="10",shape=record];
  Node7 [label="ObiektSceny.hh",height=0.2,width=0.4,color="black", fillcolor="grey75", style="filled", fontcolor="black"];
  Node7 -> Node8 [dir="back",color="midnightblue",fontsize="10",style="solid",fontname="Helvetica"];
  Node8 [label="PrzeszkodaPr.hh",height=0.2,width=0.4,color="black", fillcolor="white", style="filled",URL="$_przeszkoda_pr_8hh.html"];
  Node8 -> Node9 [dir="back",color="midnightblue",fontsize="10",style="solid",fontname="Helvetica"];
  Node9 [label="Dron.hh",height=0.2,width=0.4,color="black", fillcolor="white", style="filled",URL="$_dron_8hh.html"];
  Node9 -> Node10 [dir="back",color="midnightblue",fontsize="10",style="solid",fontname="Helvetica"];
  Node10 [label="Fabryka.hh",height=0.2,width=0.4,color="black", fillcolor="white", style="filled",URL="$_fabryka_8hh.html"];
  Node10 -> Node11 [dir="back",color="midnightblue",fontsize="10",style="solid",fontname="Helvetica"];
  Node11 [label="Scena.hh",height=0.2,width=0.4,color="black", fillcolor="white", style="filled",URL="$_scena_8hh.html"];
  Node9 -> Node11 [dir="back",color="midnightblue",fontsize="10",style="solid",fontname="Helvetica"];
  Node8 -> Node10 [dir="back",color="midnightblue",fontsize="10",style="solid",fontname="Helvetica"];
  Node7 -> Node10 [dir="back",color="midnightblue",fontsize="10",style="solid",fontname="Helvetica"];
  Node7 -> Node11 [dir="back",color="midnightblue",fontsize="10",style="solid",fontname="Helvetica"];
}
