digraph "Scena.hh"
{
  edge [fontname="Helvetica",fontsize="10",labelfontname="Helvetica",labelfontsize="10"];
  node [fontname="Helvetica",fontsize="10",shape=record];
  Node0 [label="Scena.hh",height=0.2,width=0.4,color="black", fillcolor="grey75", style="filled", fontcolor="black"];
  Node0 -> Node1 [color="midnightblue",fontsize="10",style="solid",fontname="Helvetica"];
  Node1 [label="Dron.hh",height=0.2,width=0.4,color="black", fillcolor="white", style="filled",URL="$_dron_8hh.html"];
  Node1 -> Node2 [color="midnightblue",fontsize="10",style="solid",fontname="Helvetica"];
  Node2 [label="unistd.h",height=0.2,width=0.4,color="grey75", fillcolor="white", style="filled"];
  Node1 -> Node3 [color="midnightblue",fontsize="10",style="solid",fontname="Helvetica"];
  Node3 [label="Graniastoslup.hh",height=0.2,width=0.4,color="black", fillcolor="white", style="filled",URL="$_graniastoslup_8hh.html"];
  Node3 -> Node4 [color="midnightblue",fontsize="10",style="solid",fontname="Helvetica"];
  Node4 [label="Prostopadloscian.hh",height=0.2,width=0.4,color="black", fillcolor="white", style="filled",URL="$_prostopadloscian_8hh.html"];
  Node4 -> Node5 [color="midnightblue",fontsize="10",style="solid",fontname="Helvetica"];
  Node5 [label="FiguraGeometryczna.hh",height=0.2,width=0.4,color="black", fillcolor="white", style="filled",URL="$_figura_geometryczna_8hh.html"];
  Node5 -> Node6 [color="midnightblue",fontsize="10",style="solid",fontname="Helvetica"];
  Node6 [label="iostream",height=0.2,width=0.4,color="grey75", fillcolor="white", style="filled"];
  Node5 -> Node7 [color="midnightblue",fontsize="10",style="solid",fontname="Helvetica"];
  Node7 [label="fstream",height=0.2,width=0.4,color="grey75", fillcolor="white", style="filled"];
  Node5 -> Node8 [color="midnightblue",fontsize="10",style="solid",fontname="Helvetica"];
  Node8 [label="iomanip",height=0.2,width=0.4,color="grey75", fillcolor="white", style="filled"];
  Node5 -> Node9 [color="midnightblue",fontsize="10",style="solid",fontname="Helvetica"];
  Node9 [label="vector",height=0.2,width=0.4,color="grey75", fillcolor="white", style="filled"];
  Node5 -> Node10 [color="midnightblue",fontsize="10",style="solid",fontname="Helvetica"];
  Node10 [label="Wektor3D.hh",height=0.2,width=0.4,color="black", fillcolor="white", style="filled",URL="$_wektor3_d_8hh.html"];
  Node10 -> Node11 [color="midnightblue",fontsize="10",style="solid",fontname="Helvetica"];
  Node11 [label="Wektor.hh",height=0.2,width=0.4,color="black", fillcolor="white", style="filled",URL="$_wektor_8hh.html",tooltip="Plik zawiera definicje szablonu klasy Wektor<> "];
  Node11 -> Node12 [color="midnightblue",fontsize="10",style="solid",fontname="Helvetica"];
  Node12 [label="assert.h",height=0.2,width=0.4,color="grey75", fillcolor="white", style="filled"];
  Node11 -> Node13 [color="midnightblue",fontsize="10",style="solid",fontname="Helvetica"];
  Node13 [label="cmath",height=0.2,width=0.4,color="grey75", fillcolor="white", style="filled"];
  Node11 -> Node8 [color="midnightblue",fontsize="10",style="solid",fontname="Helvetica"];
  Node11 -> Node6 [color="midnightblue",fontsize="10",style="solid",fontname="Helvetica"];
  Node5 -> Node14 [color="midnightblue",fontsize="10",style="solid",fontname="Helvetica"];
  Node14 [label="Macierz3x3.hh",height=0.2,width=0.4,color="black", fillcolor="white", style="filled",URL="$_macierz3x3_8hh.html"];
  Node14 -> Node15 [color="midnightblue",fontsize="10",style="solid",fontname="Helvetica"];
  Node15 [label="Macierz.hh",height=0.2,width=0.4,color="black", fillcolor="white", style="filled",URL="$_macierz_8hh.html"];
  Node15 -> Node13 [color="midnightblue",fontsize="10",style="solid",fontname="Helvetica"];
  Node15 -> Node10 [color="midnightblue",fontsize="10",style="solid",fontname="Helvetica"];
  Node1 -> Node16 [color="midnightblue",fontsize="10",style="solid",fontname="Helvetica"];
  Node16 [label="lacze_do_gnuplota.hh",height=0.2,width=0.4,color="black", fillcolor="white", style="filled",URL="$lacze__do__gnuplota_8hh.html"];
  Node16 -> Node17 [color="midnightblue",fontsize="10",style="solid",fontname="Helvetica"];
  Node17 [label="list",height=0.2,width=0.4,color="grey75", fillcolor="white", style="filled"];
  Node16 -> Node18 [color="midnightblue",fontsize="10",style="solid",fontname="Helvetica"];
  Node18 [label="string",height=0.2,width=0.4,color="grey75", fillcolor="white", style="filled"];
  Node16 -> Node9 [color="midnightblue",fontsize="10",style="solid",fontname="Helvetica"];
  Node1 -> Node19 [color="midnightblue",fontsize="10",style="solid",fontname="Helvetica"];
  Node19 [label="PrzeszkodaPr.hh",height=0.2,width=0.4,color="black", fillcolor="white", style="filled",URL="$_przeszkoda_pr_8hh.html"];
  Node19 -> Node5 [color="midnightblue",fontsize="10",style="solid",fontname="Helvetica"];
  Node19 -> Node20 [color="midnightblue",fontsize="10",style="solid",fontname="Helvetica"];
  Node20 [label="ObiektSceny.hh",height=0.2,width=0.4,color="black", fillcolor="white", style="filled",URL="$_obiekt_sceny_8hh.html"];
  Node20 -> Node10 [color="midnightblue",fontsize="10",style="solid",fontname="Helvetica"];
  Node0 -> Node20 [color="midnightblue",fontsize="10",style="solid",fontname="Helvetica"];
  Node0 -> Node21 [color="midnightblue",fontsize="10",style="solid",fontname="Helvetica"];
  Node21 [label="Fabryka.hh",height=0.2,width=0.4,color="black", fillcolor="white", style="filled",URL="$_fabryka_8hh.html"];
  Node21 -> Node10 [color="midnightblue",fontsize="10",style="solid",fontname="Helvetica"];
  Node21 -> Node20 [color="midnightblue",fontsize="10",style="solid",fontname="Helvetica"];
  Node21 -> Node1 [color="midnightblue",fontsize="10",style="solid",fontname="Helvetica"];
  Node21 -> Node19 [color="midnightblue",fontsize="10",style="solid",fontname="Helvetica"];
  Node21 -> Node22 [color="midnightblue",fontsize="10",style="solid",fontname="Helvetica"];
  Node22 [label="memory",height=0.2,width=0.4,color="grey75", fillcolor="white", style="filled"];
  Node0 -> Node22 [color="midnightblue",fontsize="10",style="solid",fontname="Helvetica"];
}
