digraph "FiguraGeometryczna"
{
  edge [fontname="Helvetica",fontsize="10",labelfontname="Helvetica",labelfontsize="10"];
  node [fontname="Helvetica",fontsize="10",shape=record];
  Node0 [label="FiguraGeometryczna",height=0.2,width=0.4,color="black", fillcolor="grey75", style="filled", fontcolor="black"];
  Node0 -> Node1 [dir="back",color="midnightblue",fontsize="10",style="solid",fontname="Helvetica"];
  Node1 [label="Graniastoslup",height=0.2,width=0.4,color="black", fillcolor="white", style="filled",URL="$class_graniastoslup.html",tooltip="Klasa modeluje pojecie Graniastoslupa. "];
  Node0 -> Node2 [dir="back",color="midnightblue",fontsize="10",style="solid",fontname="Helvetica"];
  Node2 [label="Prostopadloscian",height=0.2,width=0.4,color="black", fillcolor="white", style="filled",URL="$class_prostopadloscian.html",tooltip="Klasa modelująca prostopadłościan. "];
  Node0 -> Node3 [dir="back",color="midnightblue",fontsize="10",style="solid",fontname="Helvetica"];
  Node3 [label="PrzeszkodaPr",height=0.2,width=0.4,color="black", fillcolor="white", style="filled",URL="$class_przeszkoda_pr.html",tooltip="Klasa modelująca pojęcie prostopadłościennej przeszkody. "];
}
