digraph "Dron"
{
  edge [fontname="Helvetica",fontsize="10",labelfontname="Helvetica",labelfontsize="10"];
  node [fontname="Helvetica",fontsize="10",shape=record];
  Node0 [label="Dron",height=0.2,width=0.4,color="black", fillcolor="grey75", style="filled", fontcolor="black"];
  Node1 -> Node0 [dir="back",color="midnightblue",fontsize="10",style="solid",fontname="Helvetica"];
  Node1 [label="ObiektSceny",height=0.2,width=0.4,color="black", fillcolor="white", style="filled",URL="$class_obiekt_sceny.html",tooltip="Klasa modelująca obiekt sceny Zastosowanie np. do wykrywania kolizji. "];
}
