digraph "PrzeszkodaPr"
{
  edge [fontname="Helvetica",fontsize="10",labelfontname="Helvetica",labelfontsize="10"];
  node [fontname="Helvetica",fontsize="10",shape=record];
  Node3 [label="PrzeszkodaPr",height=0.2,width=0.4,color="black", fillcolor="grey75", style="filled", fontcolor="black"];
  Node4 -> Node3 [dir="back",color="midnightblue",fontsize="10",style="solid",fontname="Helvetica"];
  Node4 [label="FiguraGeometryczna",height=0.2,width=0.4,color="black", fillcolor="white", style="filled",URL="$class_figura_geometryczna.html",tooltip="klasa modelująca pojęcie figury geometrycznej "];
  Node5 -> Node4 [dir="back",color="darkorchid3",fontsize="10",style="dashed",label=" Wektor_Trans" ,fontname="Helvetica"];
  Node5 [label="Wektor\< 3 \>",height=0.2,width=0.4,color="black", fillcolor="white", style="filled",URL="$class_wektor.html"];
  Node6 -> Node3 [dir="back",color="midnightblue",fontsize="10",style="solid",fontname="Helvetica"];
  Node6 [label="ObiektSceny",height=0.2,width=0.4,color="black", fillcolor="white", style="filled",URL="$class_obiekt_sceny.html",tooltip="Klasa modelująca obiekt sceny Zastosowanie np. do wykrywania kolizji. "];
  Node5 -> Node6 [dir="back",color="darkorchid3",fontsize="10",style="dashed",label=" _polozenie\nsrodek" ,fontname="Helvetica"];
}
