digraph "Graniastoslup.hh"
{
  edge [fontname="Helvetica",fontsize="10",labelfontname="Helvetica",labelfontsize="10"];
  node [fontname="Helvetica",fontsize="10",shape=record];
  Node13 [label="Graniastoslup.hh",height=0.2,width=0.4,color="black", fillcolor="grey75", style="filled", fontcolor="black"];
  Node13 -> Node14 [dir="back",color="midnightblue",fontsize="10",style="solid",fontname="Helvetica"];
  Node14 [label="Dron.hh",height=0.2,width=0.4,color="black", fillcolor="white", style="filled",URL="$_dron_8hh.html"];
  Node14 -> Node15 [dir="back",color="midnightblue",fontsize="10",style="solid",fontname="Helvetica"];
  Node15 [label="Scena.hh",height=0.2,width=0.4,color="black", fillcolor="white", style="filled",URL="$_scena_8hh.html"];
}
