digraph "Macierz3x3.hh"
{
  edge [fontname="Helvetica",fontsize="10",labelfontname="Helvetica",labelfontsize="10"];
  node [fontname="Helvetica",fontsize="10",shape=record];
  Node8 [label="Macierz3x3.hh",height=0.2,width=0.4,color="black", fillcolor="grey75", style="filled", fontcolor="black"];
  Node8 -> Node9 [dir="back",color="midnightblue",fontsize="10",style="solid",fontname="Helvetica"];
  Node9 [label="FiguraGeometryczna.hh",height=0.2,width=0.4,color="black", fillcolor="white", style="filled",URL="$_figura_geometryczna_8hh.html"];
  Node9 -> Node10 [dir="back",color="midnightblue",fontsize="10",style="solid",fontname="Helvetica"];
  Node10 [label="Prostopadloscian.hh",height=0.2,width=0.4,color="black", fillcolor="white", style="filled",URL="$_prostopadloscian_8hh.html"];
  Node10 -> Node11 [dir="back",color="midnightblue",fontsize="10",style="solid",fontname="Helvetica"];
  Node11 [label="Graniastoslup.hh",height=0.2,width=0.4,color="black", fillcolor="white", style="filled",URL="$_graniastoslup_8hh.html"];
  Node11 -> Node12 [dir="back",color="midnightblue",fontsize="10",style="solid",fontname="Helvetica"];
  Node12 [label="Dron.hh",height=0.2,width=0.4,color="black", fillcolor="white", style="filled",URL="$_dron_8hh.html"];
  Node12 -> Node13 [dir="back",color="midnightblue",fontsize="10",style="solid",fontname="Helvetica"];
  Node13 [label="Scena.hh",height=0.2,width=0.4,color="black", fillcolor="white", style="filled",URL="$_scena_8hh.html"];
  Node9 -> Node14 [dir="back",color="midnightblue",fontsize="10",style="solid",fontname="Helvetica"];
  Node14 [label="PrzeszkodaPr.hh",height=0.2,width=0.4,color="black", fillcolor="white", style="filled",URL="$_przeszkoda_pr_8hh.html"];
  Node14 -> Node12 [dir="back",color="midnightblue",fontsize="10",style="solid",fontname="Helvetica"];
}
